{
    "group_dict": {
        "a": {
            "default_schedule": {
                "a": 1,
                "sample":"abc"
            },
            "ids": [
                "0",
                "1"
            ]
        },
        "b": {
            "default_schedule": {
                "b": 1
            },
            "ids": [
                "3",
                "2"
            ]
        }
    }
}
