{
  "updateTime": "2020-03-25T17:43:45.981610",
  "transferVer": "transferVer",
  "groupId": "groupId",
  "onDate": "2020-03-25",
  "fileVer": "00000",
  "files": [
    {
      "no": 0,
      "type": "video",
      "path": "1/2/3/0.mp4",
      "fileSize": 5,
      "cid": "abcd",
      "mode": "epg",
      "onDate": "2020-03-25"
    },
    {
      "no": 1,
      "type": "video",
      "path": "1/2/3/2.mp4",
      "fileSize": 5,
      "cid": "abcd",
      "mode": "epg",
      "onDate": "2020-03-25"
    }
  ]
}